213
121
0
2
43
176
215
227
0
2
45
0
214
65
0
2
45
201
219
176
0
11
18
0
142
144
32
39
224
68
2
240
34
221
0
0
208
144
248
43
224
48
225
69
144
24
10
224
255
84
128
112
60
144
246
0
240
239
68
128
144
24
10
240
144
248
28
116
160
240
144
112
0
224
68
64
240
224
100
1
112
19
18
45
176
144
24
10
224
84
127
240
0
0
0
0
0
224
68
128
240
144
112
0
224
84
191
240
228
144
248
28
240
144
248
43
224
48
226
49
144
246
0
224
112
33
4
240
144
248
28
224
68
160
255
240
144
72
3
224
144
112
14
240
144
72
4
224
144
112
15
240
239
84
95
144
248
28
240
144
72
19
224
68
1
240
18
45
136
18
27
167
34
144
73
2
224
253
48
224
31
144
24
117
224
68
4
240
0
224
84
251
240
144
16
1
224
68
16
240
0
224
84
239
240
237
84
254
144
73
2
240
34
228
144
246
1
240
144
246
1
224
195
148
50
116
128
148
128
80
6
0
224
4
240
128
237
34
18
27
93
18
45
136
34