C51 COMPILER V9.60.0.0   IOA_PATCH_HANDLER                                                 01/24/2024 14:58:38 PAGE 1   


C51 COMPILER V9.60.0.0, COMPILATION OF MODULE IOA_PATCH_HANDLER
OBJECT MODULE PLACED IN .\Objects\ioa_patch_handler.obj
COMPILER INVOKED BY: C:\Keil_v5\C51\BIN\C51.EXE ioa_patch_handler.c OMF2 ROM(COMPACT) OPTIMIZE(8,SPEED) BROWSE MDU_R515 
                    -MOD517(NOAU) DEBUG PRINT(.\Listings\ioa_patch_handler.lst) TABS(2) OBJECT(.\Objects\ioa_patch_handler.obj)

line level    source

   1          //--------------------------------------------------------//
   2          // HW Aux Rx Buffer Addr
   3          //--------------------------------------------------------//
   4          unsigned char xdata g_aux_rx_seq _at_ 0x320;
   5          unsigned char xdata g_aux_rx_len _at_ 0x324;
   6          unsigned char xdata g_ioa_password_data_1 _at_ 0x325;
   7          unsigned char xdata g_ioa_password_data_2 _at_ 0x326;
   8          unsigned char xdata g_ioa_password_data_3 _at_ 0x327;
   9          unsigned char xdata g_ioa_password_data_4 _at_ 0x328;
  10          unsigned char xdata g_ioa_password_data_5 _at_ 0x329;
  11          unsigned char xdata g_ioa_password_data_6 _at_ 0x32A;
  12          //--------------------------------------------------------//
  13          // Hw Ver Addr
  14          //--------------------------------------------------------//
  15          //unsigned char xdata g_hw_ver _at_ 0x118;
  16          //--------------------------------------------------------//
  17          // Var Xmem Addr
  18          //--------------------------------------------------------//
  19          unsigned char xdata g_aux_data_tmp[8] _at_ 0x9400;
  20          //unsigned char xdata g_aux_ioa_passworde_en;
  21          //--------------------------------------------------------//
  22          // Internal Var Addr
  23          //--------------------------------------------------------//
  24          unsigned char data g_mot _at_ 0x6B;
  25          unsigned char data g_buf_head _at_ 0x19;
  26          unsigned char data g_edp_aux_last_i2c _at_ 0x59;
  27          extern volatile bit  data     IOA_MODE; 
  28          extern volatile bit  data     IOA_RELEASE_BUS; 
  29          //--------------------------------------------------------//
  30          unsigned char ioa_patch(void)
  31          {
  32   1        unsigned char i;
  33   1        unsigned char len;
  34   1        if(g_aux_rx_seq > 4) 
  35   1        {
  36   2          len = (g_aux_rx_len) + 1;
  37   2          for(i = 0 ; i < len ; i++)
  38   2          {
  39   3            g_aux_data_tmp[g_buf_head++] = *(volatile unsigned char xdata *)(0x325 + i);
  40   3          }
  41   2        }
  42   1        
  43   1        if(g_mot == 0)
  44   1        {
  45   2          if(g_buf_head > 5)
  46   2          {
  47   3            g_buf_head = 0;
  48   3            if(g_aux_data_tmp[0] == 0x29 && \
  49   3              g_aux_data_tmp[2] == 0x00 && \
  50   3              g_aux_data_tmp[3] == 0x10 && \
  51   3              g_aux_data_tmp[5] == 0x00 
  52   3            )
  53   3            {
  54   4              if(g_aux_data_tmp[1] == 0x95 && g_aux_data_tmp[4] == 0x59)
C51 COMPILER V9.60.0.0   IOA_PATCH_HANDLER                                                 01/24/2024 14:58:38 PAGE 2   

  55   4              {
  56   5                IOA_MODE = 1;
  57   5                IOA_RELEASE_BUS = 1;
  58   5                g_edp_aux_last_i2c = 1;
  59   5              }
  60   4              if(g_aux_data_tmp[1] == 0x00 && g_aux_data_tmp[4] == 0x00)
  61   4              {
  62   5                IOA_MODE = 0;
  63   5              }
  64   4            }
  65   3          } 
  66   2        }
  67   1        return 1;
  68   1      }


MODULE INFORMATION:   STATIC OVERLAYABLE
   CODE SIZE        =    143    ----
   CONSTANT SIZE    =   ----    ----
   XDATA SIZE       =   ----    ----
   PDATA SIZE       =   ----    ----
   DATA SIZE        =   ----    ----
   IDATA SIZE       =   ----    ----
   BIT SIZE         =   ----    ----
   EDATA SIZE       =   ----    ----
   HDATA SIZE       =   ----    ----
   XDATA CONST SIZE =   ----    ----
   FAR CONST SIZE   =   ----    ----
END OF MODULE INFORMATION.


C51 COMPILATION COMPLETE.  0 WARNING(S),  0 ERROR(S)
