:1000000002001990F82BE030E1F980F7902027E00A
:100010004402F022122BBE80FB787FE4F6D8FD75F7
:050020008146020014FE
:01293F002275
:102BBE0090F113E0B5330CE53D64027006F54575F2
:092BCE00460122E4F545F546221A
:00000001FF
